[
    {
        "ID":"1",
        "cedula":"1314523212",
        "apellidos":"Mantuano",
        "nombre":"Juan",
        "Direccion":"Montecristi",
        "telefono":"0968574321"
    },
    {
        "ID":"2",
        "cedula":"1314523221",
        "apellidos":"Pinargote",
        "nombre":"Julio",
        "Direccion":"Manta",
        "telefono":"09687845123"
    },
    {
        "ID":"3",
        "cedula":"1314871253",
        "apellidos":"Perez",
        "nombre":"David",
        "Direccion":"Portoviejo",
        "telefono":"0956123548"
    },
    {
        "ID":"4",
        "cedula":"1314529845",
        "apellidos":"Mioncayo",
        "nombre":"Andres",
        "Direccion":"Manta",
        "telefono":"0967845612"
    },
    {
        "ID":"5",
        "cedula":"1314558461",
        "apellidos":"Anchundia",
        "nombre":"Marcos",
        "Direccion":"Montecristi",
        "telefono":"0968584512"
    },
    {
        "ID":"6",
        "cedula":"1314524587",
        "apellidos":"Chiquito",
        "nombre":"Mario",
        "Direccion":"Manta",
        "telefono":"0968598653"
    },
    {
        "ID":"7",
        "cedula":"1314527845",
        "apellidos":"Palacios",
        "nombre":"Joan",
        "Direccion":"Montecristi",
        "telefono":"0968577845"
    },
    {
        "ID":"8",
        "cedula":"1314523212",
        "apellidos":"Mantuano",
        "nombre":"Javier",
        "Direccion":"Montecristi",
        "telefono":"0968574321"
    },
    {
        "ID":"9",
        "cedula":"1314545712",
        "apellidos":"Diaz",
        "nombre":"Diomedes",
        "Direccion":"Portoviejo",
        "telefono":"0967956425"
    },
    {
        "ID":"10",
        "cedula":"1314874562",
        "apellidos":"Quijije",
        "nombre":"Kerly",
        "Direccion":"Montecristi",
        "telefono":"0968784652"
    }
]
